<?xml version="1.0" encoding="UTF-8"?>
<!-- Do not edit this file with editors other than draw.io -->
<!DOCTYPE svg PUBLIC "-//W3C//DTD SVG 1.1//EN" "http://www.w3.org/Graphics/SVG/1.1/DTD/svg11.dtd">
<svg xmlns="http://www.w3.org/2000/svg" xmlns:xlink="http://www.w3.org/1999/xlink" version="1.1" width="611px" height="331px" viewBox="-0.5 -0.5 611 331" content="&lt;mxfile host=&quot;Electron&quot; modified=&quot;2024-03-12T23:41:56.426Z&quot; agent=&quot;Mozilla/5.0 (X11; Linux x86_64) AppleWebKit/537.36 (KHTML, like Gecko) draw.io/22.1.21 Chrome/120.0.6099.109 Electron/28.1.0 Safari/537.36&quot; etag=&quot;-_-YhFBSfiedP30IR8of&quot; version=&quot;22.1.21&quot; type=&quot;device&quot;&gt;&#10;  &lt;diagram id=&quot;prtHgNgQTEPvFCAcTncT&quot; name=&quot;Page-1&quot;&gt;&#10;    &lt;mxGraphModel dx=&quot;897&quot; dy=&quot;390&quot; grid=&quot;1&quot; gridSize=&quot;10&quot; guides=&quot;1&quot; tooltips=&quot;1&quot; connect=&quot;1&quot; arrows=&quot;1&quot; fold=&quot;1&quot; page=&quot;1&quot; pageScale=&quot;1&quot; pageWidth=&quot;827&quot; pageHeight=&quot;1169&quot; math=&quot;0&quot; shadow=&quot;0&quot;&gt;&#10;      &lt;root&gt;&#10;        &lt;mxCell id=&quot;0&quot; /&gt;&#10;        &lt;mxCell id=&quot;1&quot; parent=&quot;0&quot; /&gt;&#10;        &lt;mxCell id=&quot;4kLRug4j4SnsGMej9lYd-14&quot; value=&quot;Cave adventure&quot; style=&quot;swimlane;startSize=20;horizontal=1;containerType=tree;newEdgeStyle={&amp;quot;edgeStyle&amp;quot;:&amp;quot;elbowEdgeStyle&amp;quot;,&amp;quot;startArrow&amp;quot;:&amp;quot;none&amp;quot;,&amp;quot;endArrow&amp;quot;:&amp;quot;none&amp;quot;};&quot; parent=&quot;1&quot; vertex=&quot;1&quot;&gt;&#10;          &lt;mxGeometry x=&quot;190&quot; y=&quot;30&quot; width=&quot;610&quot; height=&quot;330&quot; as=&quot;geometry&quot; /&gt;&#10;        &lt;/mxCell&gt;&#10;        &lt;mxCell id=&quot;4kLRug4j4SnsGMej9lYd-15&quot; value=&quot;&quot; style=&quot;edgeStyle=elbowEdgeStyle;elbow=vertical;sourcePerimeterSpacing=0;targetPerimeterSpacing=0;startArrow=none;endArrow=blockThin;rounded=0;curved=0;endSize=6;endFill=1;&quot; parent=&quot;4kLRug4j4SnsGMej9lYd-14&quot; source=&quot;4kLRug4j4SnsGMej9lYd-17&quot; target=&quot;4kLRug4j4SnsGMej9lYd-18&quot; edge=&quot;1&quot;&gt;&#10;          &lt;mxGeometry relative=&quot;1&quot; as=&quot;geometry&quot; /&gt;&#10;        &lt;/mxCell&gt;&#10;        &lt;mxCell id=&quot;4kLRug4j4SnsGMej9lYd-60&quot; value=&quot;&amp;quot;yes&amp;quot;&quot; style=&quot;edgeLabel;html=1;align=center;verticalAlign=middle;resizable=0;points=[];&quot; parent=&quot;4kLRug4j4SnsGMej9lYd-15&quot; vertex=&quot;1&quot; connectable=&quot;0&quot;&gt;&#10;          &lt;mxGeometry x=&quot;0.2276&quot; y=&quot;-3&quot; relative=&quot;1&quot; as=&quot;geometry&quot;&gt;&#10;            &lt;mxPoint as=&quot;offset&quot; /&gt;&#10;          &lt;/mxGeometry&gt;&#10;        &lt;/mxCell&gt;&#10;        &lt;mxCell id=&quot;4kLRug4j4SnsGMej9lYd-16&quot; value=&quot;&quot; style=&quot;edgeStyle=elbowEdgeStyle;elbow=vertical;sourcePerimeterSpacing=0;targetPerimeterSpacing=0;startArrow=none;endArrow=blockThin;rounded=0;curved=0;endFill=1;&quot; parent=&quot;4kLRug4j4SnsGMej9lYd-14&quot; source=&quot;4kLRug4j4SnsGMej9lYd-17&quot; target=&quot;4kLRug4j4SnsGMej9lYd-19&quot; edge=&quot;1&quot;&gt;&#10;          &lt;mxGeometry relative=&quot;1&quot; as=&quot;geometry&quot; /&gt;&#10;        &lt;/mxCell&gt;&#10;        &lt;mxCell id=&quot;4kLRug4j4SnsGMej9lYd-61&quot; value=&quot;&amp;quot;no&amp;quot;&quot; style=&quot;edgeLabel;html=1;align=center;verticalAlign=middle;resizable=0;points=[];&quot; parent=&quot;4kLRug4j4SnsGMej9lYd-16&quot; vertex=&quot;1&quot; connectable=&quot;0&quot;&gt;&#10;          &lt;mxGeometry x=&quot;0.2774&quot; y=&quot;1&quot; relative=&quot;1&quot; as=&quot;geometry&quot;&gt;&#10;            &lt;mxPoint x=&quot;-1&quot; as=&quot;offset&quot; /&gt;&#10;          &lt;/mxGeometry&gt;&#10;        &lt;/mxCell&gt;&#10;        &lt;UserObject label=&quot;room0: welcome&quot; treeRoot=&quot;1&quot; id=&quot;4kLRug4j4SnsGMej9lYd-17&quot;&gt;&#10;          &lt;mxCell style=&quot;whiteSpace=wrap;html=1;align=center;treeFolding=1;treeMoving=1;newEdgeStyle={&amp;quot;edgeStyle&amp;quot;:&amp;quot;elbowEdgeStyle&amp;quot;,&amp;quot;startArrow&amp;quot;:&amp;quot;none&amp;quot;,&amp;quot;endArrow&amp;quot;:&amp;quot;none&amp;quot;};&quot; parent=&quot;4kLRug4j4SnsGMej9lYd-14&quot; vertex=&quot;1&quot;&gt;&#10;            &lt;mxGeometry x=&quot;180&quot; y=&quot;40&quot; width=&quot;120&quot; height=&quot;30&quot; as=&quot;geometry&quot; /&gt;&#10;          &lt;/mxCell&gt;&#10;        &lt;/UserObject&gt;&#10;        &lt;mxCell id=&quot;4kLRug4j4SnsGMej9lYd-18&quot; value=&quot;room1: instructions&quot; style=&quot;whiteSpace=wrap;html=1;align=center;verticalAlign=middle;treeFolding=1;treeMoving=1;newEdgeStyle={&amp;quot;edgeStyle&amp;quot;:&amp;quot;elbowEdgeStyle&amp;quot;,&amp;quot;startArrow&amp;quot;:&amp;quot;none&amp;quot;,&amp;quot;endArrow&amp;quot;:&amp;quot;none&amp;quot;};&quot; parent=&quot;4kLRug4j4SnsGMej9lYd-14&quot; vertex=&quot;1&quot;&gt;&#10;          &lt;mxGeometry x=&quot;70&quot; y=&quot;110&quot; width=&quot;130&quot; height=&quot;30&quot; as=&quot;geometry&quot; /&gt;&#10;        &lt;/mxCell&gt;&#10;        &lt;mxCell id=&quot;4kLRug4j4SnsGMej9lYd-19&quot; value=&quot;room2: road&quot; style=&quot;whiteSpace=wrap;html=1;align=center;verticalAlign=middle;treeFolding=1;treeMoving=1;newEdgeStyle={&amp;quot;edgeStyle&amp;quot;:&amp;quot;elbowEdgeStyle&amp;quot;,&amp;quot;startArrow&amp;quot;:&amp;quot;none&amp;quot;,&amp;quot;endArrow&amp;quot;:&amp;quot;none&amp;quot;};&quot; parent=&quot;4kLRug4j4SnsGMej9lYd-14&quot; vertex=&quot;1&quot;&gt;&#10;          &lt;mxGeometry x=&quot;270&quot; y=&quot;110&quot; width=&quot;170&quot; height=&quot;30&quot; as=&quot;geometry&quot; /&gt;&#10;        &lt;/mxCell&gt;&#10;        &lt;mxCell id=&quot;4kLRug4j4SnsGMej9lYd-23&quot; value=&quot;room0: welcome&quot; style=&quot;whiteSpace=wrap;html=1;align=center;verticalAlign=middle;treeFolding=1;treeMoving=1;newEdgeStyle={&amp;quot;edgeStyle&amp;quot;:&amp;quot;elbowEdgeStyle&amp;quot;,&amp;quot;startArrow&amp;quot;:&amp;quot;none&amp;quot;,&amp;quot;endArrow&amp;quot;:&amp;quot;none&amp;quot;};&quot; parent=&quot;4kLRug4j4SnsGMej9lYd-14&quot; vertex=&quot;1&quot;&gt;&#10;          &lt;mxGeometry x=&quot;60&quot; y=&quot;200&quot; width=&quot;120&quot; height=&quot;30&quot; as=&quot;geometry&quot; /&gt;&#10;        &lt;/mxCell&gt;&#10;        &lt;mxCell id=&quot;4kLRug4j4SnsGMej9lYd-20&quot; value=&quot;&quot; style=&quot;edgeStyle=elbowEdgeStyle;elbow=vertical;sourcePerimeterSpacing=0;targetPerimeterSpacing=0;startArrow=none;endArrow=blockThin;rounded=0;curved=0;exitX=0.25;exitY=1;exitDx=0;exitDy=0;endFill=1;&quot; parent=&quot;4kLRug4j4SnsGMej9lYd-14&quot; source=&quot;4kLRug4j4SnsGMej9lYd-18&quot; target=&quot;4kLRug4j4SnsGMej9lYd-23&quot; edge=&quot;1&quot;&gt;&#10;          &lt;mxGeometry relative=&quot;1&quot; as=&quot;geometry&quot;&gt;&#10;            &lt;mxPoint x=&quot;140&quot; y=&quot;170&quot; as=&quot;sourcePoint&quot; /&gt;&#10;          &lt;/mxGeometry&gt;&#10;        &lt;/mxCell&gt;&#10;        &lt;mxCell id=&quot;4kLRug4j4SnsGMej9lYd-66&quot; value=&quot;&amp;quot;look&amp;quot;&quot; style=&quot;edgeLabel;html=1;align=center;verticalAlign=middle;resizable=0;points=[];&quot; parent=&quot;4kLRug4j4SnsGMej9lYd-20&quot; vertex=&quot;1&quot; connectable=&quot;0&quot;&gt;&#10;          &lt;mxGeometry x=&quot;0.5733&quot; y=&quot;1&quot; relative=&quot;1&quot; as=&quot;geometry&quot;&gt;&#10;            &lt;mxPoint y=&quot;1&quot; as=&quot;offset&quot; /&gt;&#10;          &lt;/mxGeometry&gt;&#10;        &lt;/mxCell&gt;&#10;        &lt;mxCell id=&quot;4kLRug4j4SnsGMej9lYd-34&quot; value=&quot;north road&quot; style=&quot;whiteSpace=wrap;html=1;align=center;verticalAlign=middle;treeFolding=1;treeMoving=1;newEdgeStyle={&amp;quot;edgeStyle&amp;quot;:&amp;quot;elbowEdgeStyle&amp;quot;,&amp;quot;startArrow&amp;quot;:&amp;quot;none&amp;quot;,&amp;quot;endArrow&amp;quot;:&amp;quot;none&amp;quot;};&quot; parent=&quot;4kLRug4j4SnsGMej9lYd-14&quot; vertex=&quot;1&quot;&gt;&#10;          &lt;mxGeometry x=&quot;300&quot; y=&quot;210&quot; width=&quot;80&quot; height=&quot;30&quot; as=&quot;geometry&quot; /&gt;&#10;        &lt;/mxCell&gt;&#10;        &lt;mxCell id=&quot;4kLRug4j4SnsGMej9lYd-35&quot; value=&quot;&quot; style=&quot;edgeStyle=elbowEdgeStyle;elbow=vertical;sourcePerimeterSpacing=0;targetPerimeterSpacing=0;startArrow=none;endArrow=blockThin;rounded=0;curved=0;exitX=0.75;exitY=1;exitDx=0;exitDy=0;endFill=1;&quot; parent=&quot;4kLRug4j4SnsGMej9lYd-14&quot; source=&quot;4kLRug4j4SnsGMej9lYd-19&quot; target=&quot;4kLRug4j4SnsGMej9lYd-34&quot; edge=&quot;1&quot;&gt;&#10;          &lt;mxGeometry relative=&quot;1&quot; as=&quot;geometry&quot;&gt;&#10;            &lt;mxPoint x=&quot;420&quot; y=&quot;140&quot; as=&quot;sourcePoint&quot; /&gt;&#10;          &lt;/mxGeometry&gt;&#10;        &lt;/mxCell&gt;&#10;        &lt;mxCell id=&quot;4kLRug4j4SnsGMej9lYd-69&quot; value=&quot;N&quot; style=&quot;edgeLabel;html=1;align=center;verticalAlign=middle;resizable=0;points=[];&quot; parent=&quot;4kLRug4j4SnsGMej9lYd-35&quot; vertex=&quot;1&quot; connectable=&quot;0&quot;&gt;&#10;          &lt;mxGeometry x=&quot;0.2471&quot; y=&quot;-2&quot; relative=&quot;1&quot; as=&quot;geometry&quot;&gt;&#10;            &lt;mxPoint x=&quot;1&quot; as=&quot;offset&quot; /&gt;&#10;          &lt;/mxGeometry&gt;&#10;        &lt;/mxCell&gt;&#10;        &lt;mxCell id=&quot;4kLRug4j4SnsGMej9lYd-37&quot; value=&quot;&quot; style=&quot;edgeStyle=elbowEdgeStyle;elbow=vertical;sourcePerimeterSpacing=0;targetPerimeterSpacing=0;startArrow=none;endArrow=blockThin;rounded=0;curved=0;exitX=0.75;exitY=1;exitDx=0;exitDy=0;endFill=1;&quot; parent=&quot;4kLRug4j4SnsGMej9lYd-14&quot; source=&quot;4kLRug4j4SnsGMej9lYd-19&quot; target=&quot;4kLRug4j4SnsGMej9lYd-72&quot; edge=&quot;1&quot;&gt;&#10;          &lt;mxGeometry relative=&quot;1&quot; as=&quot;geometry&quot;&gt;&#10;            &lt;mxPoint x=&quot;420&quot; y=&quot;140&quot; as=&quot;sourcePoint&quot; /&gt;&#10;          &lt;/mxGeometry&gt;&#10;        &lt;/mxCell&gt;&#10;        &lt;mxCell id=&quot;4kLRug4j4SnsGMej9lYd-68&quot; value=&quot;S&quot; style=&quot;edgeLabel;html=1;align=center;verticalAlign=middle;resizable=0;points=[];&quot; parent=&quot;4kLRug4j4SnsGMej9lYd-37&quot; vertex=&quot;1&quot; connectable=&quot;0&quot;&gt;&#10;          &lt;mxGeometry x=&quot;0.7268&quot; y=&quot;-2&quot; relative=&quot;1&quot; as=&quot;geometry&quot;&gt;&#10;            &lt;mxPoint y=&quot;1&quot; as=&quot;offset&quot; /&gt;&#10;          &lt;/mxGeometry&gt;&#10;        &lt;/mxCell&gt;&#10;        &lt;mxCell id=&quot;4kLRug4j4SnsGMej9lYd-38&quot; value=&quot;east road&quot; style=&quot;whiteSpace=wrap;html=1;align=center;verticalAlign=middle;treeFolding=1;treeMoving=1;newEdgeStyle={&amp;quot;edgeStyle&amp;quot;:&amp;quot;elbowEdgeStyle&amp;quot;,&amp;quot;startArrow&amp;quot;:&amp;quot;none&amp;quot;,&amp;quot;endArrow&amp;quot;:&amp;quot;none&amp;quot;};&quot; parent=&quot;4kLRug4j4SnsGMej9lYd-14&quot; vertex=&quot;1&quot;&gt;&#10;          &lt;mxGeometry x=&quot;460&quot; y=&quot;230&quot; width=&quot;100&quot; height=&quot;30&quot; as=&quot;geometry&quot; /&gt;&#10;        &lt;/mxCell&gt;&#10;        &lt;mxCell id=&quot;4kLRug4j4SnsGMej9lYd-39&quot; value=&quot;&quot; style=&quot;edgeStyle=elbowEdgeStyle;elbow=vertical;sourcePerimeterSpacing=0;targetPerimeterSpacing=0;startArrow=none;endArrow=blockThin;rounded=0;curved=0;exitX=0.75;exitY=1;exitDx=0;exitDy=0;endFill=1;&quot; parent=&quot;4kLRug4j4SnsGMej9lYd-14&quot; source=&quot;4kLRug4j4SnsGMej9lYd-19&quot; target=&quot;4kLRug4j4SnsGMej9lYd-38&quot; edge=&quot;1&quot;&gt;&#10;          &lt;mxGeometry relative=&quot;1&quot; as=&quot;geometry&quot;&gt;&#10;            &lt;mxPoint x=&quot;420&quot; y=&quot;140&quot; as=&quot;sourcePoint&quot; /&gt;&#10;          &lt;/mxGeometry&gt;&#10;        &lt;/mxCell&gt;&#10;        &lt;mxCell id=&quot;4kLRug4j4SnsGMej9lYd-67&quot; value=&quot;E&quot; style=&quot;edgeLabel;html=1;align=center;verticalAlign=middle;resizable=0;points=[];&quot; parent=&quot;4kLRug4j4SnsGMej9lYd-39&quot; vertex=&quot;1&quot; connectable=&quot;0&quot;&gt;&#10;          &lt;mxGeometry x=&quot;0.1111&quot; y=&quot;-2&quot; relative=&quot;1&quot; as=&quot;geometry&quot;&gt;&#10;            &lt;mxPoint x=&quot;1&quot; as=&quot;offset&quot; /&gt;&#10;          &lt;/mxGeometry&gt;&#10;        &lt;/mxCell&gt;&#10;        &lt;mxCell id=&quot;4kLRug4j4SnsGMej9lYd-72&quot; value=&quot;south road&quot; style=&quot;whiteSpace=wrap;html=1;align=center;verticalAlign=middle;treeFolding=1;treeMoving=1;newEdgeStyle={&amp;quot;edgeStyle&amp;quot;:&amp;quot;elbowEdgeStyle&amp;quot;,&amp;quot;startArrow&amp;quot;:&amp;quot;none&amp;quot;,&amp;quot;endArrow&amp;quot;:&amp;quot;none&amp;quot;};&quot; parent=&quot;4kLRug4j4SnsGMej9lYd-14&quot; vertex=&quot;1&quot;&gt;&#10;          &lt;mxGeometry x=&quot;370&quot; y=&quot;220&quot; width=&quot;100&quot; height=&quot;30&quot; as=&quot;geometry&quot; /&gt;&#10;        &lt;/mxCell&gt;&#10;        &lt;mxCell id=&quot;U46RWLsFDSoMx5R0YCvP-2&quot; value=&quot;&quot; style=&quot;edgeStyle=elbowEdgeStyle;elbow=horizontal;sourcePerimeterSpacing=0;targetPerimeterSpacing=0;startArrow=none;endArrow=blockThin;rounded=0;curved=0;endFill=1;entryX=0;entryY=0.5;entryDx=0;entryDy=0;exitX=0;exitY=0.5;exitDx=0;exitDy=0;dashed=1;dashPattern=8 8;&quot; parent=&quot;4kLRug4j4SnsGMej9lYd-14&quot; source=&quot;4kLRug4j4SnsGMej9lYd-23&quot; target=&quot;4kLRug4j4SnsGMej9lYd-17&quot; edge=&quot;1&quot;&gt;&#10;          &lt;mxGeometry relative=&quot;1&quot; as=&quot;geometry&quot;&gt;&#10;            &lt;mxPoint x=&quot;20&quot; y=&quot;250&quot; as=&quot;sourcePoint&quot; /&gt;&#10;            &lt;mxPoint x=&quot;110&quot; y=&quot;40&quot; as=&quot;targetPoint&quot; /&gt;&#10;            &lt;Array as=&quot;points&quot;&gt;&#10;              &lt;mxPoint x=&quot;20&quot; y=&quot;140&quot; /&gt;&#10;              &lt;mxPoint x=&quot;20&quot; y=&quot;150&quot; /&gt;&#10;            &lt;/Array&gt;&#10;          &lt;/mxGeometry&gt;&#10;        &lt;/mxCell&gt;&#10;        &lt;mxCell id=&quot;U46RWLsFDSoMx5R0YCvP-6&quot; value=&quot;&quot; style=&quot;edgeStyle=elbowEdgeStyle;elbow=vertical;sourcePerimeterSpacing=0;targetPerimeterSpacing=0;startArrow=none;endArrow=blockThin;rounded=0;curved=0;exitX=0.75;exitY=1;exitDx=0;exitDy=0;endSize=6;endFill=1;&quot; parent=&quot;1&quot; source=&quot;4kLRug4j4SnsGMej9lYd-19&quot; target=&quot;U46RWLsFDSoMx5R0YCvP-8&quot; edge=&quot;1&quot;&gt;&#10;          &lt;mxGeometry relative=&quot;1&quot; as=&quot;geometry&quot;&gt;&#10;            &lt;mxPoint x=&quot;608&quot; y=&quot;40&quot; as=&quot;sourcePoint&quot; /&gt;&#10;            &lt;Array as=&quot;points&quot;&gt;&#10;              &lt;mxPoint x=&quot;650&quot; y=&quot;190&quot; /&gt;&#10;            &lt;/Array&gt;&#10;          &lt;/mxGeometry&gt;&#10;        &lt;/mxCell&gt;&#10;        &lt;mxCell id=&quot;U46RWLsFDSoMx5R0YCvP-7&quot; value=&quot;W&quot; style=&quot;edgeLabel;html=1;align=center;verticalAlign=middle;resizable=0;points=[];&quot; parent=&quot;U46RWLsFDSoMx5R0YCvP-6&quot; vertex=&quot;1&quot; connectable=&quot;0&quot;&gt;&#10;          &lt;mxGeometry x=&quot;0.1111&quot; y=&quot;-2&quot; relative=&quot;1&quot; as=&quot;geometry&quot;&gt;&#10;            &lt;mxPoint x=&quot;1&quot; as=&quot;offset&quot; /&gt;&#10;          &lt;/mxGeometry&gt;&#10;        &lt;/mxCell&gt;&#10;        &lt;mxCell id=&quot;U46RWLsFDSoMx5R0YCvP-8&quot; value=&quot;west road&quot; style=&quot;whiteSpace=wrap;html=1;align=center;verticalAlign=middle;treeFolding=1;treeMoving=1;newEdgeStyle={&amp;quot;edgeStyle&amp;quot;:&amp;quot;elbowEdgeStyle&amp;quot;,&amp;quot;startArrow&amp;quot;:&amp;quot;none&amp;quot;,&amp;quot;endArrow&amp;quot;:&amp;quot;none&amp;quot;};&quot; parent=&quot;1&quot; vertex=&quot;1&quot;&gt;&#10;          &lt;mxGeometry x=&quot;670&quot; y=&quot;130&quot; width=&quot;100&quot; height=&quot;30&quot; as=&quot;geometry&quot; /&gt;&#10;        &lt;/mxCell&gt;&#10;      &lt;/root&gt;&#10;    &lt;/mxGraphModel&gt;&#10;  &lt;/diagram&gt;&#10;&lt;/mxfile&gt;&#10;"><defs/><g><path d="M 0 20 L 0 0 L 610 0 L 610 20" fill="rgb(24, 20, 29)" stroke="rgb(240, 240, 240)" stroke-miterlimit="10" pointer-events="all"/><path d="M 0 20 L 0 330 L 610 330 L 610 20" fill="none" stroke="rgb(240, 240, 240)" stroke-miterlimit="10" pointer-events="none"/><path d="M 0 20 L 610 20" fill="none" stroke="rgb(240, 240, 240)" stroke-miterlimit="10" pointer-events="none"/><g fill="rgb(240, 240, 240)" font-family="Helvetica" font-weight="bold" text-anchor="middle" font-size="12px"><text x="304.5" y="14.5">Cave adventure</text></g><path d="M 240 70 L 240 90 L 135 90 L 135 101.88" fill="none" stroke="rgb(240, 240, 240)" stroke-miterlimit="10" pointer-events="stroke"/><path d="M 135 108.88 L 132.67 101.88 L 137.33 101.88 Z" fill="rgb(240, 240, 240)" stroke="rgb(240, 240, 240)" stroke-miterlimit="10" pointer-events="all"/><g transform="translate(-0.5 -0.5)"><switch><foreignObject pointer-events="none" width="100%" height="100%" requiredFeatures="http://www.w3.org/TR/SVG11/feature#Extensibility" style="overflow: visible; text-align: left;"><div xmlns="http://www.w3.org/1999/xhtml" style="display: flex; align-items: unsafe center; justify-content: unsafe center; width: 1px; height: 1px; padding-top: 88px; margin-left: 172px;"><div data-drawio-colors="color: rgb(240, 240, 240); background-color: rgb(24, 20, 29); " style="box-sizing: border-box; font-size: 0px; text-align: center;"><div style="display: inline-block; font-size: 11px; font-family: Helvetica; color: rgb(240, 240, 240); line-height: 1.2; pointer-events: all; background-color: rgb(24, 20, 29); white-space: nowrap;">"yes"</div></div></div></foreignObject><text x="172" y="91" fill="rgb(240, 240, 240)" font-family="Helvetica" font-size="11px" text-anchor="middle">"yes"</text></switch></g><path d="M 240 70 L 240 90 L 355 90 L 355 101.88" fill="none" stroke="rgb(240, 240, 240)" stroke-miterlimit="10" pointer-events="stroke"/><path d="M 355 108.88 L 352.67 101.88 L 357.33 101.88 Z" fill="rgb(240, 240, 240)" stroke="rgb(240, 240, 240)" stroke-miterlimit="10" pointer-events="all"/><g transform="translate(-0.5 -0.5)"><switch><foreignObject pointer-events="none" width="100%" height="100%" requiredFeatures="http://www.w3.org/TR/SVG11/feature#Extensibility" style="overflow: visible; text-align: left;"><div xmlns="http://www.w3.org/1999/xhtml" style="display: flex; align-items: unsafe center; justify-content: unsafe center; width: 1px; height: 1px; padding-top: 90px; margin-left: 319px;"><div data-drawio-colors="color: rgb(240, 240, 240); background-color: rgb(24, 20, 29); " style="box-sizing: border-box; font-size: 0px; text-align: center;"><div style="display: inline-block; font-size: 11px; font-family: Helvetica; color: rgb(240, 240, 240); line-height: 1.2; pointer-events: all; background-color: rgb(24, 20, 29); white-space: nowrap;">"no"</div></div></div></foreignObject><text x="319" y="93" fill="rgb(240, 240, 240)" font-family="Helvetica" font-size="11px" text-anchor="middle">"no"</text></switch></g><rect x="180" y="40" width="120" height="30" fill="rgb(24, 20, 29)" stroke="rgb(240, 240, 240)" pointer-events="all"/><g transform="translate(-0.5 -0.5)"><switch><foreignObject pointer-events="none" width="100%" height="100%" requiredFeatures="http://www.w3.org/TR/SVG11/feature#Extensibility" style="overflow: visible; text-align: left;"><div xmlns="http://www.w3.org/1999/xhtml" style="display: flex; align-items: unsafe center; justify-content: unsafe center; width: 118px; height: 1px; padding-top: 55px; margin-left: 181px;"><div data-drawio-colors="color: rgb(240, 240, 240); " style="box-sizing: border-box; font-size: 0px; text-align: center;"><div style="display: inline-block; font-size: 12px; font-family: Helvetica; color: rgb(240, 240, 240); line-height: 1.2; pointer-events: all; white-space: normal; overflow-wrap: normal;">room0: welcome</div></div></div></foreignObject><text x="240" y="59" fill="rgb(240, 240, 240)" font-family="Helvetica" font-size="12px" text-anchor="middle">room0: welcome</text></switch></g><rect x="70" y="110" width="130" height="30" fill="rgb(24, 20, 29)" stroke="rgb(240, 240, 240)" pointer-events="all"/><g transform="translate(-0.5 -0.5)"><switch><foreignObject pointer-events="none" width="100%" height="100%" requiredFeatures="http://www.w3.org/TR/SVG11/feature#Extensibility" style="overflow: visible; text-align: left;"><div xmlns="http://www.w3.org/1999/xhtml" style="display: flex; align-items: unsafe center; justify-content: unsafe center; width: 128px; height: 1px; padding-top: 125px; margin-left: 71px;"><div data-drawio-colors="color: rgb(240, 240, 240); " style="box-sizing: border-box; font-size: 0px; text-align: center;"><div style="display: inline-block; font-size: 12px; font-family: Helvetica; color: rgb(240, 240, 240); line-height: 1.2; pointer-events: all; white-space: normal; overflow-wrap: normal;">room1: instructions</div></div></div></foreignObject><text x="135" y="129" fill="rgb(240, 240, 240)" font-family="Helvetica" font-size="12px" text-anchor="middle">room1: instructions</text></switch></g><rect x="270" y="110" width="170" height="30" fill="rgb(24, 20, 29)" stroke="rgb(240, 240, 240)" pointer-events="all"/><g transform="translate(-0.5 -0.5)"><switch><foreignObject pointer-events="none" width="100%" height="100%" requiredFeatures="http://www.w3.org/TR/SVG11/feature#Extensibility" style="overflow: visible; text-align: left;"><div xmlns="http://www.w3.org/1999/xhtml" style="display: flex; align-items: unsafe center; justify-content: unsafe center; width: 168px; height: 1px; padding-top: 125px; margin-left: 271px;"><div data-drawio-colors="color: rgb(240, 240, 240); " style="box-sizing: border-box; font-size: 0px; text-align: center;"><div style="display: inline-block; font-size: 12px; font-family: Helvetica; color: rgb(240, 240, 240); line-height: 1.2; pointer-events: all; white-space: normal; overflow-wrap: normal;">room2: road</div></div></div></foreignObject><text x="355" y="129" fill="rgb(240, 240, 240)" font-family="Helvetica" font-size="12px" text-anchor="middle">room2: road</text></switch></g><rect x="60" y="200" width="120" height="30" fill="rgb(24, 20, 29)" stroke="rgb(240, 240, 240)" pointer-events="all"/><g transform="translate(-0.5 -0.5)"><switch><foreignObject pointer-events="none" width="100%" height="100%" requiredFeatures="http://www.w3.org/TR/SVG11/feature#Extensibility" style="overflow: visible; text-align: left;"><div xmlns="http://www.w3.org/1999/xhtml" style="display: flex; align-items: unsafe center; justify-content: unsafe center; width: 118px; height: 1px; padding-top: 215px; margin-left: 61px;"><div data-drawio-colors="color: rgb(240, 240, 240); " style="box-sizing: border-box; font-size: 0px; text-align: center;"><div style="display: inline-block; font-size: 12px; font-family: Helvetica; color: rgb(240, 240, 240); line-height: 1.2; pointer-events: all; white-space: normal; overflow-wrap: normal;">room0: welcome</div></div></div></foreignObject><text x="120" y="219" fill="rgb(240, 240, 240)" font-family="Helvetica" font-size="12px" text-anchor="middle">room0: welcome</text></switch></g><path d="M 102.5 140 L 102.5 170 L 120 170 L 120 191.88" fill="none" stroke="rgb(240, 240, 240)" stroke-miterlimit="10" pointer-events="stroke"/><path d="M 120 198.88 L 117.67 191.88 L 122.33 191.88 Z" fill="rgb(240, 240, 240)" stroke="rgb(240, 240, 240)" stroke-miterlimit="10" pointer-events="all"/><g transform="translate(-0.5 -0.5)"><switch><foreignObject pointer-events="none" width="100%" height="100%" requiredFeatures="http://www.w3.org/TR/SVG11/feature#Extensibility" style="overflow: visible; text-align: left;"><div xmlns="http://www.w3.org/1999/xhtml" style="display: flex; align-items: unsafe center; justify-content: unsafe center; width: 1px; height: 1px; padding-top: 185px; margin-left: 122px;"><div data-drawio-colors="color: rgb(240, 240, 240); background-color: rgb(24, 20, 29); " style="box-sizing: border-box; font-size: 0px; text-align: center;"><div style="display: inline-block; font-size: 11px; font-family: Helvetica; color: rgb(240, 240, 240); line-height: 1.2; pointer-events: all; background-color: rgb(24, 20, 29); white-space: nowrap;">"look"</div></div></div></foreignObject><text x="122" y="188" fill="rgb(240, 240, 240)" font-family="Helvetica" font-size="11px" text-anchor="middle">"look"</text></switch></g><rect x="300" y="210" width="80" height="30" fill="rgb(24, 20, 29)" stroke="rgb(240, 240, 240)" pointer-events="all"/><g transform="translate(-0.5 -0.5)"><switch><foreignObject pointer-events="none" width="100%" height="100%" requiredFeatures="http://www.w3.org/TR/SVG11/feature#Extensibility" style="overflow: visible; text-align: left;"><div xmlns="http://www.w3.org/1999/xhtml" style="display: flex; align-items: unsafe center; justify-content: unsafe center; width: 78px; height: 1px; padding-top: 225px; margin-left: 301px;"><div data-drawio-colors="color: rgb(240, 240, 240); " style="box-sizing: border-box; font-size: 0px; text-align: center;"><div style="display: inline-block; font-size: 12px; font-family: Helvetica; color: rgb(240, 240, 240); line-height: 1.2; pointer-events: all; white-space: normal; overflow-wrap: normal;">north road</div></div></div></foreignObject><text x="340" y="229" fill="rgb(240, 240, 240)" font-family="Helvetica" font-size="12px" text-anchor="middle">north road</text></switch></g><path d="M 397.5 140 L 397.5 175 L 340 175 L 340 201.88" fill="none" stroke="rgb(240, 240, 240)" stroke-miterlimit="10" pointer-events="stroke"/><path d="M 340 208.88 L 337.67 201.88 L 342.33 201.88 Z" fill="rgb(240, 240, 240)" stroke="rgb(240, 240, 240)" stroke-miterlimit="10" pointer-events="all"/><g transform="translate(-0.5 -0.5)"><switch><foreignObject pointer-events="none" width="100%" height="100%" requiredFeatures="http://www.w3.org/TR/SVG11/feature#Extensibility" style="overflow: visible; text-align: left;"><div xmlns="http://www.w3.org/1999/xhtml" style="display: flex; align-items: unsafe center; justify-content: unsafe center; width: 1px; height: 1px; padding-top: 174px; margin-left: 354px;"><div data-drawio-colors="color: rgb(240, 240, 240); background-color: rgb(24, 20, 29); " style="box-sizing: border-box; font-size: 0px; text-align: center;"><div style="display: inline-block; font-size: 11px; font-family: Helvetica; color: rgb(240, 240, 240); line-height: 1.2; pointer-events: all; background-color: rgb(24, 20, 29); white-space: nowrap;">N</div></div></div></foreignObject><text x="354" y="177" fill="rgb(240, 240, 240)" font-family="Helvetica" font-size="11px" text-anchor="middle">N</text></switch></g><path d="M 397.5 140 L 397.5 180 L 420 180 L 420 211.88" fill="none" stroke="rgb(240, 240, 240)" stroke-miterlimit="10" pointer-events="stroke"/><path d="M 420 218.88 L 417.67 211.88 L 422.33 211.88 Z" fill="rgb(240, 240, 240)" stroke="rgb(240, 240, 240)" stroke-miterlimit="10" pointer-events="all"/><g transform="translate(-0.5 -0.5)"><switch><foreignObject pointer-events="none" width="100%" height="100%" requiredFeatures="http://www.w3.org/TR/SVG11/feature#Extensibility" style="overflow: visible; text-align: left;"><div xmlns="http://www.w3.org/1999/xhtml" style="display: flex; align-items: unsafe center; justify-content: unsafe center; width: 1px; height: 1px; padding-top: 207px; margin-left: 419px;"><div data-drawio-colors="color: rgb(240, 240, 240); background-color: rgb(24, 20, 29); " style="box-sizing: border-box; font-size: 0px; text-align: center;"><div style="display: inline-block; font-size: 11px; font-family: Helvetica; color: rgb(240, 240, 240); line-height: 1.2; pointer-events: all; background-color: rgb(24, 20, 29); white-space: nowrap;">S</div></div></div></foreignObject><text x="419" y="210" fill="rgb(240, 240, 240)" font-family="Helvetica" font-size="11px" text-anchor="middle">S</text></switch></g><rect x="460" y="230" width="100" height="30" fill="rgb(24, 20, 29)" stroke="rgb(240, 240, 240)" pointer-events="all"/><g transform="translate(-0.5 -0.5)"><switch><foreignObject pointer-events="none" width="100%" height="100%" requiredFeatures="http://www.w3.org/TR/SVG11/feature#Extensibility" style="overflow: visible; text-align: left;"><div xmlns="http://www.w3.org/1999/xhtml" style="display: flex; align-items: unsafe center; justify-content: unsafe center; width: 98px; height: 1px; padding-top: 245px; margin-left: 461px;"><div data-drawio-colors="color: rgb(240, 240, 240); " style="box-sizing: border-box; font-size: 0px; text-align: center;"><div style="display: inline-block; font-size: 12px; font-family: Helvetica; color: rgb(240, 240, 240); line-height: 1.2; pointer-events: all; white-space: normal; overflow-wrap: normal;">east road</div></div></div></foreignObject><text x="510" y="249" fill="rgb(240, 240, 240)" font-family="Helvetica" font-size="12px" text-anchor="middle">east road</text></switch></g><path d="M 397.5 140 L 397.5 185 L 510 185 L 510 221.88" fill="none" stroke="rgb(240, 240, 240)" stroke-miterlimit="10" pointer-events="stroke"/><path d="M 510 228.88 L 507.67 221.88 L 512.33 221.88 Z" fill="rgb(240, 240, 240)" stroke="rgb(240, 240, 240)" stroke-miterlimit="10" pointer-events="all"/><g transform="translate(-0.5 -0.5)"><switch><foreignObject pointer-events="none" width="100%" height="100%" requiredFeatures="http://www.w3.org/TR/SVG11/feature#Extensibility" style="overflow: visible; text-align: left;"><div xmlns="http://www.w3.org/1999/xhtml" style="display: flex; align-items: unsafe center; justify-content: unsafe center; width: 1px; height: 1px; padding-top: 188px; margin-left: 466px;"><div data-drawio-colors="color: rgb(240, 240, 240); background-color: rgb(24, 20, 29); " style="box-sizing: border-box; font-size: 0px; text-align: center;"><div style="display: inline-block; font-size: 11px; font-family: Helvetica; color: rgb(240, 240, 240); line-height: 1.2; pointer-events: all; background-color: rgb(24, 20, 29); white-space: nowrap;">E</div></div></div></foreignObject><text x="466" y="191" fill="rgb(240, 240, 240)" font-family="Helvetica" font-size="11px" text-anchor="middle">E</text></switch></g><rect x="370" y="220" width="100" height="30" fill="rgb(24, 20, 29)" stroke="rgb(240, 240, 240)" pointer-events="all"/><g transform="translate(-0.5 -0.5)"><switch><foreignObject pointer-events="none" width="100%" height="100%" requiredFeatures="http://www.w3.org/TR/SVG11/feature#Extensibility" style="overflow: visible; text-align: left;"><div xmlns="http://www.w3.org/1999/xhtml" style="display: flex; align-items: unsafe center; justify-content: unsafe center; width: 98px; height: 1px; padding-top: 235px; margin-left: 371px;"><div data-drawio-colors="color: rgb(240, 240, 240); " style="box-sizing: border-box; font-size: 0px; text-align: center;"><div style="display: inline-block; font-size: 12px; font-family: Helvetica; color: rgb(240, 240, 240); line-height: 1.2; pointer-events: all; white-space: normal; overflow-wrap: normal;">south road</div></div></div></foreignObject><text x="420" y="239" fill="rgb(240, 240, 240)" font-family="Helvetica" font-size="12px" text-anchor="middle">south road</text></switch></g><path d="M 60 215 L 20 215 L 20 55 L 171.88 55" fill="none" stroke="rgb(240, 240, 240)" stroke-miterlimit="10" stroke-dasharray="8 8" pointer-events="stroke"/><path d="M 178.88 55 L 171.88 57.33 L 171.88 52.67 Z" fill="rgb(240, 240, 240)" stroke="rgb(240, 240, 240)" stroke-miterlimit="10" pointer-events="all"/><path d="M 397.5 140 L 397.5 160 L 530 160 L 530 138.12" fill="none" stroke="rgb(240, 240, 240)" stroke-miterlimit="10" pointer-events="stroke"/><path d="M 530 131.12 L 532.33 138.12 L 527.67 138.12 Z" fill="rgb(240, 240, 240)" stroke="rgb(240, 240, 240)" stroke-miterlimit="10" pointer-events="all"/><g transform="translate(-0.5 -0.5)"><switch><foreignObject pointer-events="none" width="100%" height="100%" requiredFeatures="http://www.w3.org/TR/SVG11/feature#Extensibility" style="overflow: visible; text-align: left;"><div xmlns="http://www.w3.org/1999/xhtml" style="display: flex; align-items: unsafe center; justify-content: unsafe center; width: 1px; height: 1px; padding-top: 163px; margin-left: 480px;"><div data-drawio-colors="color: rgb(240, 240, 240); background-color: rgb(24, 20, 29); " style="box-sizing: border-box; font-size: 0px; text-align: center;"><div style="display: inline-block; font-size: 11px; font-family: Helvetica; color: rgb(240, 240, 240); line-height: 1.2; pointer-events: all; background-color: rgb(24, 20, 29); white-space: nowrap;">W</div></div></div></foreignObject><text x="480" y="166" fill="rgb(240, 240, 240)" font-family="Helvetica" font-size="11px" text-anchor="middle">W</text></switch></g><rect x="480" y="100" width="100" height="30" fill="rgb(24, 20, 29)" stroke="rgb(240, 240, 240)" pointer-events="all"/><g transform="translate(-0.5 -0.5)"><switch><foreignObject pointer-events="none" width="100%" height="100%" requiredFeatures="http://www.w3.org/TR/SVG11/feature#Extensibility" style="overflow: visible; text-align: left;"><div xmlns="http://www.w3.org/1999/xhtml" style="display: flex; align-items: unsafe center; justify-content: unsafe center; width: 98px; height: 1px; padding-top: 115px; margin-left: 481px;"><div data-drawio-colors="color: rgb(240, 240, 240); " style="box-sizing: border-box; font-size: 0px; text-align: center;"><div style="display: inline-block; font-size: 12px; font-family: Helvetica; color: rgb(240, 240, 240); line-height: 1.2; pointer-events: all; white-space: normal; overflow-wrap: normal;">west road</div></div></div></foreignObject><text x="530" y="119" fill="rgb(240, 240, 240)" font-family="Helvetica" font-size="12px" text-anchor="middle">west road</text></switch></g></g><switch><g requiredFeatures="http://www.w3.org/TR/SVG11/feature#Extensibility"/><a transform="translate(0,-5)" xlink:href="https://www.drawio.com/doc/faq/svg-export-text-problems" target="_blank"><text text-anchor="middle" font-size="10px" x="50%" y="100%">Text is not SVG - cannot display</text></a></switch></svg>